<?xml version="1.0" encoding="utf-8"?>
<svg width="197px" height="197px" xmlns="http://www.w3.org/2000/svg" version="1.1">
<circle cx="98" cy="98" r="88" fill="#fff" stroke="#000" stroke-width="20"/>
<path d="M44.5,85.5a55,55 0 1 1 0,25h25a30,30 0 1 0 0-25z"/>
</svg>
